<?xml version="1.0" encoding="utf-8"?>
<!-- Generator: Adobe Illustrator 24.1.0, SVG Export Plug-In . SVG Version: 6.00 Build 0)  -->
<svg version="1.1" id="Layer_1" xmlns="http://www.w3.org/2000/svg" xmlns:xlink="http://www.w3.org/1999/xlink" x="0px" y="0px"
	 viewBox="0 0 114 31" style="enable-background:new 0 0 114 31;" xml:space="preserve">
<style type="text/css">
	.st0{fill:#0084B6;}
	.st1{enable-background:new    ;}
	.st2{filter:url(#Adobe_OpacityMaskFilter);}
	.st3{fill-rule:evenodd;clip-rule:evenodd;fill:#FFFFFF;}
	.st4{mask:url(#mask-2_2_);}
	.st5{fill-rule:evenodd;clip-rule:evenodd;fill:#0084B6;}
</style>
<desc>Created with Sketch.</desc>
<g id="Salespage-">
	<g id="Salespage-Desktop" transform="translate(-1074.000000, -4499.000000)">
		<g id="_x30_6.-Footer" transform="translate(0.000000, 4258.000000)">
			<g id="Contact" transform="translate(165.000000, 159.000000)">
				<g id="Button" transform="translate(910.000000, 82.500000)">
					<g id="Base">
						<path class="st0" d="M97,30.5H15c-8.5,0-15.5-7-15.5-15.5S6.5-0.5,15-0.5h82c8.5,0,15.5,7,15.5,15.5S105.5,30.5,97,30.5z
							 M15,0.5C7,0.5,0.5,7,0.5,15S7,29.5,15,29.5h82c8,0,14.5-6.5,14.5-14.5S105,0.5,97,0.5H15z"/>
					</g>
					<g class="st1">
						<path class="st0" d="M45.3,18.5c-0.6,0-1.1-0.1-1.5-0.3c-0.5-0.2-0.8-0.4-1.2-0.8c-0.3-0.3-0.6-0.8-0.7-1.2
							c-0.2-0.5-0.3-1.1-0.3-1.7c0-0.6,0.1-1.2,0.3-1.7s0.5-0.9,0.8-1.2s0.7-0.6,1.2-0.8s0.9-0.3,1.5-0.3c0.3,0,0.6,0,0.9,0.1
							c0.3,0,0.5,0.1,0.7,0.2c0.2,0.1,0.3,0.1,0.5,0.2c0.1,0.1,0.2,0.1,0.3,0.1l-0.4,1.1c-0.2-0.1-0.4-0.2-0.8-0.3
							c-0.3-0.1-0.7-0.1-1.1-0.1c-0.3,0-0.6,0.1-0.9,0.2c-0.3,0.1-0.5,0.3-0.7,0.5s-0.4,0.5-0.5,0.9s-0.2,0.7-0.2,1.2
							c0,0.4,0,0.8,0.1,1.1c0.1,0.3,0.2,0.6,0.4,0.9c0.2,0.2,0.4,0.4,0.7,0.6c0.3,0.1,0.6,0.2,1.1,0.2c0.5,0,0.9,0,1.2-0.1
							c0.3-0.1,0.5-0.2,0.7-0.3l0.4,1.1c-0.1,0.1-0.2,0.1-0.4,0.2c-0.2,0.1-0.3,0.1-0.5,0.2c-0.2,0.1-0.4,0.1-0.7,0.1
							S45.6,18.5,45.3,18.5z"/>
						<path class="st0" d="M53.9,15.5c0,0.5-0.1,0.9-0.2,1.2s-0.3,0.7-0.6,1c-0.2,0.3-0.5,0.5-0.9,0.6c-0.3,0.1-0.7,0.2-1.1,0.2
							s-0.8-0.1-1.1-0.2c-0.3-0.1-0.6-0.4-0.9-0.6c-0.2-0.3-0.4-0.6-0.6-1s-0.2-0.8-0.2-1.2s0.1-0.9,0.2-1.2s0.3-0.7,0.6-1
							c0.2-0.3,0.5-0.5,0.9-0.6c0.3-0.1,0.7-0.2,1.1-0.2s0.8,0.1,1.1,0.2c0.3,0.1,0.6,0.3,0.9,0.6c0.2,0.3,0.4,0.6,0.6,1
							C53.9,14.6,53.9,15,53.9,15.5z M52.6,15.5c0-0.6-0.1-1-0.4-1.4s-0.6-0.5-1-0.5s-0.8,0.2-1,0.5c-0.2,0.3-0.4,0.8-0.4,1.4
							c0,0.6,0.1,1,0.4,1.4c0.2,0.3,0.6,0.5,1,0.5s0.8-0.2,1-0.5S52.6,16,52.6,15.5z"/>
						<path class="st0" d="M55.3,12.8c0.3-0.1,0.6-0.1,1-0.2c0.4-0.1,0.9-0.1,1.4-0.1c0.5,0,0.9,0.1,1.2,0.2
							c0.3,0.1,0.6,0.3,0.8,0.5c0.2,0.2,0.3,0.5,0.4,0.8c0.1,0.3,0.1,0.7,0.1,1.1v3.2h-1.3v-3c0-0.3,0-0.6-0.1-0.8
							c0-0.2-0.1-0.4-0.2-0.5s-0.2-0.2-0.4-0.3c-0.2-0.1-0.4-0.1-0.6-0.1c-0.2,0-0.3,0-0.5,0c-0.2,0-0.3,0-0.4,0.1v4.6h-1.3V12.8z"
							/>
						<path class="st0" d="M61.7,11.1l1.3-0.2v1.7h2v1.1h-2V16c0,0.5,0.1,0.8,0.2,1c0.1,0.2,0.4,0.3,0.7,0.3c0.2,0,0.5,0,0.6-0.1
							c0.2-0.1,0.3-0.1,0.4-0.1l0.2,1.1c-0.2,0.1-0.4,0.1-0.6,0.2c-0.2,0.1-0.5,0.1-0.9,0.1c-0.4,0-0.8-0.1-1-0.2
							c-0.3-0.1-0.5-0.3-0.7-0.5c-0.2-0.2-0.3-0.5-0.3-0.8s-0.1-0.6-0.1-1V11.1z"/>
						<path class="st0" d="M68.2,12.5c0.4,0,0.8,0.1,1.1,0.2c0.3,0.1,0.5,0.3,0.7,0.5c0.2,0.2,0.3,0.4,0.4,0.7
							c0.1,0.3,0.1,0.6,0.1,0.9v3.5c-0.2,0-0.5,0.1-0.9,0.2c-0.4,0.1-0.9,0.1-1.4,0.1c-0.3,0-0.7,0-0.9-0.1
							c-0.3-0.1-0.5-0.2-0.7-0.3s-0.4-0.3-0.5-0.6c-0.1-0.2-0.2-0.5-0.2-0.9c0-0.3,0.1-0.6,0.2-0.8c0.1-0.2,0.3-0.4,0.5-0.6
							c0.2-0.1,0.5-0.2,0.8-0.3s0.6-0.1,0.9-0.1c0.1,0,0.3,0,0.5,0c0.2,0,0.3,0,0.5,0.1v-0.2c0-0.2,0-0.3-0.1-0.4
							c0-0.1-0.1-0.3-0.2-0.4c-0.1-0.1-0.2-0.2-0.4-0.2s-0.3-0.1-0.6-0.1c-0.3,0-0.6,0-0.8,0.1c-0.3,0-0.5,0.1-0.6,0.2l-0.2-1.1
							c0.2-0.1,0.4-0.1,0.7-0.2S67.9,12.5,68.2,12.5z M68.4,17.4c0.4,0,0.7,0,0.9-0.1v-1.5c-0.1,0-0.2,0-0.3-0.1s-0.3,0-0.5,0
							c-0.1,0-0.3,0-0.4,0c-0.2,0-0.3,0.1-0.4,0.1s-0.2,0.1-0.3,0.2c-0.1,0.1-0.1,0.2-0.1,0.4c0,0.3,0.1,0.5,0.3,0.7
							S68,17.4,68.4,17.4z"/>
						<path class="st0" d="M71.9,15.5c0-0.4,0.1-0.8,0.2-1.2s0.3-0.7,0.6-1c0.2-0.3,0.5-0.5,0.9-0.6s0.7-0.2,1.2-0.2
							c0.5,0,1.1,0.1,1.5,0.3L76,13.8c-0.2-0.1-0.3-0.1-0.5-0.2c-0.2,0-0.4-0.1-0.6-0.1c-0.5,0-0.9,0.2-1.2,0.5
							c-0.3,0.3-0.4,0.8-0.4,1.4c0,0.6,0.1,1,0.4,1.4c0.3,0.3,0.7,0.5,1.3,0.5c0.2,0,0.5,0,0.7-0.1c0.2,0,0.4-0.1,0.6-0.2l0.2,1.1
							c-0.1,0.1-0.4,0.1-0.7,0.2s-0.6,0.1-0.9,0.1c-0.5,0-0.9-0.1-1.3-0.2c-0.4-0.2-0.7-0.4-0.9-0.6c-0.2-0.3-0.4-0.6-0.5-1
							C71.9,16.3,71.9,15.9,71.9,15.5z"/>
						<path class="st0" d="M77.3,11.1l1.3-0.2v1.7h2v1.1h-2V16c0,0.5,0.1,0.8,0.2,1c0.1,0.2,0.4,0.3,0.7,0.3c0.2,0,0.5,0,0.6-0.1
							c0.2-0.1,0.3-0.1,0.4-0.1l0.2,1.1c-0.2,0.1-0.4,0.1-0.6,0.2c-0.2,0.1-0.5,0.1-0.9,0.1c-0.4,0-0.8-0.1-1-0.2
							c-0.3-0.1-0.5-0.3-0.7-0.5c-0.2-0.2-0.3-0.5-0.3-0.8s-0.1-0.6-0.1-1V11.1z"/>
						<path class="st0" d="M87.6,18.5c-0.5,0-1-0.1-1.3-0.2c-0.4-0.2-0.7-0.4-0.9-0.6c-0.2-0.3-0.4-0.6-0.5-1
							c-0.1-0.4-0.2-0.8-0.2-1.2v-4.8H86v4.6c0,0.3,0,0.6,0.1,0.9s0.2,0.4,0.3,0.6c0.1,0.2,0.3,0.3,0.5,0.3s0.4,0.1,0.7,0.1
							c0.2,0,0.5,0,0.7-0.1s0.4-0.2,0.5-0.3c0.1-0.2,0.3-0.4,0.3-0.6c0.1-0.2,0.1-0.5,0.1-0.9v-4.6h1.4v4.8c0,0.4-0.1,0.8-0.2,1.2
							c-0.1,0.4-0.3,0.7-0.6,1c-0.2,0.3-0.6,0.5-0.9,0.6C88.5,18.4,88.1,18.5,87.6,18.5z"/>
						<path class="st0" d="M93.7,17.4c0.4,0,0.6,0,0.8-0.1c0.2-0.1,0.2-0.2,0.2-0.4c0-0.2-0.1-0.3-0.3-0.5c-0.2-0.1-0.5-0.3-0.9-0.4
							c-0.2-0.1-0.5-0.2-0.7-0.3c-0.2-0.1-0.4-0.2-0.5-0.3c-0.1-0.1-0.3-0.3-0.3-0.5C92,14.7,92,14.4,92,14.2c0-0.5,0.2-0.9,0.6-1.2
							s0.9-0.5,1.6-0.5c0.3,0,0.7,0,1,0.1c0.3,0.1,0.5,0.1,0.7,0.2l-0.2,1.1c-0.1-0.1-0.3-0.1-0.6-0.2c-0.2-0.1-0.5-0.1-0.8-0.1
							c-0.3,0-0.5,0-0.7,0.1c-0.2,0.1-0.3,0.2-0.3,0.4c0,0.1,0,0.2,0,0.3s0.1,0.1,0.2,0.2c0.1,0.1,0.2,0.1,0.3,0.2
							c0.1,0.1,0.3,0.1,0.5,0.2c0.3,0.1,0.6,0.2,0.8,0.3c0.2,0.1,0.4,0.2,0.5,0.4c0.1,0.1,0.2,0.3,0.3,0.5c0.1,0.2,0.1,0.4,0.1,0.7
							c0,0.6-0.2,1-0.6,1.2s-1,0.4-1.7,0.4c-0.5,0-0.9,0-1.2-0.1c-0.3-0.1-0.5-0.2-0.6-0.2l0.2-1.1c0.2,0.1,0.4,0.2,0.7,0.2
							C93.1,17.4,93.4,17.4,93.7,17.4z"/>
					</g>
					<g id="icon-email" transform="translate(16.000000, 8.500000)">
						<g id="Clip-2">
						</g>
						<defs>
							<filter id="Adobe_OpacityMaskFilter" filterUnits="userSpaceOnUse" x="0" y="0" width="17.9" height="11.8">
								<feColorMatrix  type="matrix" values="1 0 0 0 0  0 1 0 0 0  0 0 1 0 0  0 0 0 1 0"/>
							</filter>
						</defs>
						<mask maskUnits="userSpaceOnUse" x="0" y="0" width="17.9" height="11.8" id="mask-2_2_">
							<g class="st2">
								<polygon id="path-1_2_" class="st3" points="0,0 17.9,0 17.9,11.8 0,11.8 								"/>
							</g>
						</mask>
						<g id="Fill-1" class="st4">
							<path class="st5" d="M5.6,5.9L1,10.2V1.7L5.6,5.9z M11.2,5.5C11.2,5.5,11.2,5.5,11.2,5.5c-0.1,0.1-0.1,0.1-0.1,0.1L9,7.5
								L1.8,1h14.3L11.2,5.5z M6.4,6.6l2.2,2c0.2,0.2,0.5,0.2,0.7,0l2.2-2l4.6,4.2H1.8L6.4,6.6z M16.9,1.7v8.5l-4.7-4.2L16.9,1.7z
								 M17.9,0.4L17.9,0.4c0-0.1,0-0.1-0.1-0.2l-0.1-0.1c0,0-0.1-0.1-0.1-0.1l0,0c-0.1,0-0.1,0-0.2,0l-17,0l0,0C0.4,0,0.4,0,0.3,0
								l0,0l0,0c0,0-0.1,0.1-0.1,0.1L0.1,0.2l0,0c0,0-0.1,0.1-0.1,0.1l0,0c0,0.1,0,0.1,0,0.2v10.8c0,0.1,0,0.1,0,0.2l0,0
								c0,0,0,0.1,0.1,0.1l0,0.1c0,0,0,0,0,0l0,0c0,0,0,0,0.1,0l0,0c0.1,0,0.1,0,0.2,0h16.9c0.1,0,0.1,0,0.2,0l0,0c0,0,0,0,0.1,0
								c0,0,0,0,0,0c0,0,0,0,0,0l0,0l0,0c0,0,0.1-0.1,0.1-0.1l0,0c0-0.1,0-0.1,0-0.2V0.5C17.9,0.5,17.9,0.4,17.9,0.4L17.9,0.4z"/>
						</g>
					</g>
				</g>
			</g>
		</g>
	</g>
</g>
</svg>
