<?xml version="1.0" encoding="UTF-8"?>
<svg width="92px" height="109px" viewBox="0 0 92 109" version="1.1" xmlns="http://www.w3.org/2000/svg" xmlns:xlink="http://www.w3.org/1999/xlink">
    <!-- Generator: Sketch 62 (91390) - https://sketch.com -->
    <title>Icon</title>
    <desc>Created with Sketch.</desc>
    <defs>
        <linearGradient x1="50%" y1="0%" x2="50%" y2="99.1474873%" id="linearGradient-1">
            <stop stop-color="#0084B6" offset="0%"></stop>
            <stop stop-color="#00BADC" offset="67.4804688%"></stop>
            <stop stop-color="#44E2FF" offset="100%"></stop>
        </linearGradient>
        <polygon id="path-2" points="0 0.1568 91.9487674 0.1568 91.9487674 85.8384 0 85.8384"></polygon>
        <path d="M51.2964346,1.7492 C49.3676257,2.4588 47.5462703,3.1292 45.9744043,3.1292 L45.9744043,3.1292 C44.4025383,3.1292 42.5811828,2.4588 40.6527857,1.7492 L40.6527857,1.7492 C38.5247146,0.9664 36.3245963,0.1568 34.1178907,0.1568 L34.1178907,0.1568 C33.2887293,0.1568 32.4974443,0.274 31.7650321,0.5048 L31.7650321,0.5048 C28.6764678,1.4796 26.8015915,4.2804 25.1465623,6.7516 L25.1465623,6.7516 C24.0600892,8.3744 23.0341358,9.9072 21.8546188,10.7408 L21.8546188,10.7408 C20.6499881,11.5928 18.8133998,12.0764 16.8693581,12.5884 L16.8693581,12.5884 C13.9611178,13.3544 10.6646455,14.2224 8.78030017,16.7384 L8.78030017,16.7384 C6.91489294,19.2292 7.07010338,22.3848 7.21996174,25.436 L7.21996174,25.436 C7.31671096,27.4068 7.40851979,29.2684 6.93835977,30.6744 L6.93835977,30.6744 C6.50113565,31.9824 5.33561636,33.382 4.10134338,34.8632 L4.10134338,34.8632 C2.17871002,37.1704 0,39.786 0,42.9976 L0,42.9976 C0,46.2092 2.17871002,48.8244 4.10093168,51.132 L4.10093168,51.132 C5.33520467,52.6136 6.50113565,54.0128 6.93835977,55.3212 L6.93835977,55.3212 C7.40851979,56.7272 7.31671096,58.5888 7.21996174,60.5592 L7.21996174,60.5592 C7.06969168,63.6108 6.91406954,66.7664 8.77988847,69.2568 L8.77988847,69.2568 C10.6646455,71.7728 13.9611178,72.6408 16.8689464,73.4072 L16.8689464,73.4072 C18.8133998,73.9184 20.6499881,74.4024 21.8542071,75.254 L21.8542071,75.254 C23.0337241,76.0884 24.0596775,77.6204 25.1461506,79.2436 L25.1461506,79.2436 C26.8011798,81.7152 28.6760561,84.516 31.7646204,85.4904 L31.7646204,85.4904 C32.4974443,85.7212 33.2887293,85.8384 34.1178907,85.8384 L34.1178907,85.8384 C36.3241846,85.8384 38.5247146,85.0288 40.652374,84.246 L40.652374,84.246 C42.5811828,83.5364 44.4025383,82.866 45.9744043,82.866 L45.9744043,82.866 C47.5462703,82.866 49.3680374,83.5364 51.2968463,84.246 L51.2968463,84.246 C53.4245056,85.0288 55.6250357,85.8384 57.8309178,85.8384 L57.8309178,85.8384 C58.6604909,85.8384 59.4521877,85.7212 60.1837764,85.4904 L60.1837764,85.4904 C63.2731642,84.5156 65.1480405,81.7152 66.8026579,79.244 L66.8026579,79.244 C67.8895427,77.6212 68.9154961,76.0888 70.0946015,75.2548 L70.0946015,75.2548 C71.2988205,74.4028 73.1358205,73.9188 75.0798622,73.4072 L75.0798622,73.4072 C77.9872791,72.6412 81.284163,71.7732 83.1689201,69.2572 L83.1689201,69.2572 C85.034739,66.7664 84.8791169,63.6116 84.7292585,60.5596 L84.7292585,60.5596 C84.6325093,58.5892 84.5407005,56.7272 85.0108605,55.3212 L85.0108605,55.3212 C85.4480846,54.0132 86.6136039,52.614 87.8478769,51.1324 L87.8478769,51.1324 C89.7700985,48.8248 91.9483968,46.2092 91.9483968,42.9976 L91.9483968,42.9976 C91.9483968,39.786 89.7700985,37.1708 87.8478769,34.8632 L87.8478769,34.8632 C86.6140156,33.3816 85.4480846,31.9824 85.0108605,30.674 L85.0108605,30.674 C84.5407005,29.268 84.6325093,27.4064 84.7292585,25.4356 L84.7292585,25.4356 C84.8795286,22.3848 85.034739,19.2292 83.1693318,16.7384 L83.1693318,16.7384 C81.2845747,14.2224 77.9876908,13.3544 75.0802739,12.5884 L75.0802739,12.5884 C73.1358205,12.0764 71.2988205,11.5928 70.0946015,10.7408 L70.0946015,10.7408 C68.9154961,9.9068 67.8895427,8.374 66.8022462,6.7508 L66.8022462,6.7508 C65.1480405,4.2796 63.2731642,1.4788 60.1841881,0.5048 L60.1841881,0.5048 C59.4530111,0.274 58.6609026,0.1568 57.8309178,0.1568 L57.8309178,0.1568 C55.6254474,0.1568 53.4245056,0.9664 51.2964346,1.7492 L51.2964346,1.7492 Z" id="path-4"></path>
    </defs>
    <g id="Salespage-" stroke="none" stroke-width="1" fill="none" fill-rule="evenodd">
        <g id="Salespage-Desktop" transform="translate(-230.000000, -1721.000000)">
            <g id="04.-Kenapa" transform="translate(159.000000, 1533.000000)">
                <g id="01" transform="translate(26.000000, 149.000000)">
                    <g id="Icon" transform="translate(91.500000, 93.500000) rotate(-360.000000) translate(-91.500000, -93.500000) translate(45.000000, 39.000000)">
                        <circle id="Oval" fill="url(#linearGradient-1)" cx="46" cy="63" r="46"></circle>
                        <g id="Group-14">
                            <g id="Group-3" transform="translate(0.000000, -0.000000)">
                                <mask id="mask-3" fill="white">
                                    <use xlink:href="#path-2"></use>
                                </mask>
                                <g id="Clip-2"></g>
                                <path d="M87.8478357,34.8632 C86.6139744,33.3816 85.4480434,31.9824 85.0108193,30.674 C84.5406593,29.268 84.6324681,27.4064 84.7292173,25.4356 C84.8794874,22.3844 85.0346978,19.2292 83.1692906,16.7384 C81.2849452,14.2224 77.9880613,13.3544 75.0802327,12.5884 C73.1357793,12.0764 71.299191,11.5928 70.094972,10.7408 C68.915455,9.9068 67.8890899,8.374 66.8022051,6.7508 C65.1475876,4.2796 63.273123,1.4788 60.1845587,0.5048 C59.4525582,0.274 58.6608614,0.1568 57.8312884,0.1568 C55.6249945,0.1568 53.4244645,0.9664 51.2963934,1.7492 C49.3675846,2.4588 47.5462291,3.1292 45.9743631,3.1292 C44.4024971,3.1292 42.5811416,2.4588 40.6527445,1.7492 C38.5246734,0.9664 36.3245551,0.1568 34.1178495,0.1568 C33.2886882,0.1568 32.4969914,0.274 31.7649909,0.5048 C28.6764266,1.4796 26.8015503,4.2804 25.1465211,6.7516 C24.060048,8.3744 23.0336829,9.9072 21.8545776,10.7408 C20.6499469,11.5928 18.8133586,12.0764 16.8693169,12.5884 C13.9610766,13.3544 10.6646044,14.2224 8.780259,16.7384 C6.91485177,19.2292 7.07006221,22.3844 7.21992057,25.436 C7.31666979,27.4068 7.40847862,29.2684 6.9383186,30.6744 C6.50109448,31.9824 5.33557519,33.382 4.10130221,34.8632 C2.17866885,37.1704 -4.11698793e-05,39.786 -4.11698793e-05,42.9976 C-4.11698793e-05,46.2092 2.17866885,48.8244 4.10089051,51.132 C5.3351635,52.6136 6.50109448,54.0128 6.9383186,55.3212 C7.40847862,56.7272 7.31666979,58.5884 7.21992057,60.5592 C7.06965051,63.6108 6.91402837,66.7664 8.7798473,69.2568 C10.6646044,71.7728 13.9610766,72.6408 16.8689052,73.4068 C18.8133586,73.9188 20.6499469,74.4024 21.8541659,75.2544 C23.0332712,76.0884 24.0596363,77.6208 25.1461094,79.2436 C26.8011386,81.7152 28.6760149,84.516 31.7645792,85.4904 C32.4969914,85.7212 33.2886882,85.8384 34.1178495,85.8384 C36.3241434,85.8384 38.5246734,85.0288 40.6523328,84.246 C42.5811416,83.5364 44.4024971,82.866 45.9743631,82.866 C47.5462291,82.866 49.3679963,83.5364 51.2968051,84.246 C53.4244645,85.0288 55.6245828,85.8384 57.8312884,85.8384 C58.6604497,85.8384 59.4521465,85.7212 60.184147,85.4904 C63.273123,84.5156 65.1479993,81.7152 66.8026168,79.244 C67.8890899,77.6212 68.915455,76.0884 70.0945603,75.2548 C71.299191,74.4028 73.1357793,73.9192 75.079821,73.4072 C77.9876496,72.6412 81.2841218,71.7732 83.1688789,69.2572 C85.0346978,66.7664 84.8790757,63.6112 84.7292173,60.5596 C84.6324681,58.5888 84.5406593,56.7272 85.0108193,55.3216 C85.4480434,54.0132 86.6135627,52.614 87.8478357,51.1324 C89.7700574,48.8248 91.9487674,46.2092 91.9487674,42.9976 C91.9487674,39.786 89.7700574,37.1708 87.8478357,34.8632" id="Fill-1" fill="#00DD80" mask="url(#mask-3)"></path>
                            </g>
                            <g id="Group-6" transform="translate(0.000000, -0.000000)">
                                <mask id="mask-5" fill="white">
                                    <use xlink:href="#path-4"></use>
                                </mask>
                                <g id="Clip-5"></g>
                                <polygon id="Fill-4" fill="#00AA63" mask="url(#mask-5)" points="45.9744043 88 91.9488085 88 91.9488085 -1.6704 45.9744043 -1.6704"></polygon>
                            </g>
                            <g id="Group-13" transform="translate(21.078978, 17.705882)">
                                <path d="M50.0625733,24.0267205 C50.0625733,37.2117548 38.9106345,47.9442513 25.1874819,47.9911567 L25.0997722,47.9911567 C11.3361691,47.9911567 0.136170199,37.2402056 0.136170199,24.0267205 C0.136170199,10.8140042 11.3361691,0.0630531765 25.0997722,0.0630531765 L25.1874819,0.0630531765 C38.9106345,0.109958588 50.0625733,10.8424551 50.0625733,24.0267205" id="Fill-7" fill="#FFFFFF"></path>
                                <path d="M50.0625733,24.0267205 C50.0625733,37.2117548 38.9106345,47.9442513 25.1874819,47.9911567 L25.1874819,0.0630531765 C38.9106345,0.109958588 50.0625733,10.8424551 50.0625733,24.0267205" id="Fill-9" fill="#E1EBF0"></path>
                                <path d="M36.4302943,20.5758663 L25.1874418,31.369878 L22.7584058,33.7024611 C22.1844884,34.253023 21.4315473,34.5283039 20.6798077,34.5283039 C19.9268666,34.5283039 19.175127,34.253023 18.6004087,33.7024611 L13.37708,28.6858888 C12.2292454,27.5839961 12.2292454,25.7992837 13.37708,24.696622 C14.5233127,23.5947293 16.3848394,23.5947293 17.5326741,24.696622 L20.6798077,27.7174074 L32.2747002,16.5865994 C33.4225349,15.4839378 35.2840616,15.4839378 36.4302943,16.5865994 C37.578129,17.6884921 37.578129,19.4755114 36.4302943,20.5758663" id="Fill-11" fill="#B4D2D7"></path>
                            </g>
                        </g>
                    </g>
                </g>
            </g>
        </g>
    </g>
</svg>