<?xml version="1.0" encoding="UTF-8"?>
<svg width="268px" height="213px" viewBox="0 0 268 213" version="1.1" xmlns="http://www.w3.org/2000/svg" xmlns:xlink="http://www.w3.org/1999/xlink">
    <!-- Generator: Sketch 62 (91390) - https://sketch.com -->
    <title>patternBg</title>
    <desc>Created with Sketch.</desc>
    <g id="Salespage-" stroke="none" stroke-width="1" fill="none" fill-rule="evenodd" opacity="0.7" stroke-dasharray="0,16" stroke-linecap="round" stroke-linejoin="round">
        <g id="Salespage-Desktop" transform="translate(-157.000000, -1650.000000)" stroke="#ABE6FF" stroke-width="4">
            <g id="04.-Kenapa" transform="translate(159.000000, 1533.000000)">
                <g id="patternBg" transform="translate(0.000000, 119.000000)">
                    <line x1="0.5" y1="0" x2="0.5" y2="220" id="Line"></line>
                    <line x1="14.5" y1="0" x2="14.5" y2="220" id="Line"></line>
                    <line x1="26.5" y1="0" x2="26.5" y2="220" id="Line"></line>
                    <line x1="39.5" y1="0" x2="39.5" y2="220" id="Line"></line>
                    <line x1="52.5" y1="0" x2="52.5" y2="220" id="Line"></line>
                    <line x1="67.5" y1="0" x2="67.5" y2="220" id="Line"></line>
                    <line x1="80.5" y1="0" x2="80.5" y2="220" id="Line"></line>
                    <line x1="93.5" y1="0" x2="93.5" y2="220" id="Line"></line>
                    <line x1="105.5" y1="0" x2="105.5" y2="220" id="Line"></line>
                    <line x1="118.5" y1="0" x2="118.5" y2="220" id="Line"></line>
                    <line x1="131.5" y1="0" x2="131.5" y2="220" id="Line"></line>
                    <line x1="145.5" y1="0" x2="145.5" y2="220" id="Line"></line>
                    <line x1="157.5" y1="0" x2="157.5" y2="220" id="Line"></line>
                    <line x1="171.5" y1="0" x2="171.5" y2="220" id="Line"></line>
                    <line x1="185.5" y1="0" x2="185.5" y2="220" id="Line"></line>
                    <line x1="199.5" y1="0" x2="199.5" y2="220" id="Line"></line>
                    <line x1="211.5" y1="0" x2="211.5" y2="220" id="Line"></line>
                    <line x1="225.5" y1="0" x2="225.5" y2="220" id="Line"></line>
                    <line x1="238.5" y1="0" x2="238.5" y2="220" id="Line"></line>
                    <line x1="251.5" y1="0" x2="251.5" y2="220" id="Line"></line>
                    <line x1="263.5" y1="0" x2="263.5" y2="220" id="Line"></line>
                </g>
            </g>
        </g>
    </g>
</svg>