<?xml version="1.0" encoding="UTF-8"?>
<svg width="325px" height="326px" viewBox="0 0 325 326" version="1.1" xmlns="http://www.w3.org/2000/svg" xmlns:xlink="http://www.w3.org/1999/xlink">
    <!-- Generator: Sketch 62 (91390) - https://sketch.com -->
    <title>patternBg</title>
    <desc>Created with Sketch.</desc>
    <g id="Salespage-" stroke="none" stroke-width="1" fill="none" fill-rule="evenodd" opacity="0.7" stroke-dasharray="0,16" stroke-linecap="round" stroke-linejoin="round">
        <g id="Salespage-Desktop" transform="translate(-512.000000, -3205.000000)" stroke="#ABE6FF" stroke-width="4">
            <g id="05.-Testimonial" transform="translate(192.000000, 3002.000000)">
                <g id="patternBg" transform="translate(322.000000, 205.000000)">
                    <line x1="0.5" y1="0.24556213" x2="0.5" y2="327.245562" id="Line"></line>
                    <line x1="17.5" y1="0.24556213" x2="17.5" y2="327.245562" id="Line"></line>
                    <line x1="32.5" y1="0.24556213" x2="32.5" y2="327.245562" id="Line"></line>
                    <line x1="48.5" y1="0.24556213" x2="48.5" y2="327.245562" id="Line"></line>
                    <line x1="63.5" y1="0.24556213" x2="63.5" y2="327.245562" id="Line"></line>
                    <line x1="82.5" y1="0.24556213" x2="82.5" y2="327.245562" id="Line"></line>
                    <line x1="97.5" y1="0.24556213" x2="97.5" y2="327.245562" id="Line"></line>
                    <line x1="113.5" y1="0.24556213" x2="113.5" y2="327.245562" id="Line"></line>
                    <line x1="128.5" y1="0.24556213" x2="128.5" y2="327.245562" id="Line"></line>
                    <line x1="144.5" y1="0.24556213" x2="144.5" y2="327.245562" id="Line"></line>
                    <line x1="159.5" y1="0.24556213" x2="159.5" y2="327.245562" id="Line"></line>
                    <line x1="176.5" y1="0.24556213" x2="176.5" y2="327.245562" id="Line"></line>
                    <line x1="191.5" y1="0.24556213" x2="191.5" y2="327.245562" id="Line"></line>
                    <line x1="208.5" y1="0.24556213" x2="208.5" y2="327.245562" id="Line"></line>
                    <line x1="225.5" y1="0.24556213" x2="225.5" y2="327.245562" id="Line"></line>
                    <line x1="242.5" y1="0.24556213" x2="242.5" y2="327.245562" id="Line"></line>
                    <line x1="257.5" y1="0.24556213" x2="257.5" y2="327.245562" id="Line"></line>
                    <line x1="274.5" y1="0.24556213" x2="274.5" y2="327.245562" id="Line"></line>
                    <line x1="289.5" y1="0.24556213" x2="289.5" y2="327.245562" id="Line"></line>
                    <line x1="305.5" y1="0.24556213" x2="305.5" y2="327.245562" id="Line"></line>
                    <line x1="320.5" y1="0.24556213" x2="320.5" y2="327.245562" id="Line"></line>
                </g>
            </g>
        </g>
    </g>
</svg>