<?xml version="1.0" encoding="UTF-8"?>
<svg width="92px" height="109px" viewBox="0 0 92 109" version="1.1" xmlns="http://www.w3.org/2000/svg" xmlns:xlink="http://www.w3.org/1999/xlink">
    <!-- Generator: Sketch 62 (91390) - https://sketch.com -->
    <title>Group 16</title>
    <desc>Created with Sketch.</desc>
    <defs>
        <linearGradient x1="50%" y1="0%" x2="50%" y2="99.1474873%" id="linearGradient-1">
            <stop stop-color="#0084B6" offset="0%"></stop>
            <stop stop-color="#00BADC" offset="67.4804688%"></stop>
            <stop stop-color="#44E2FF" offset="100%"></stop>
        </linearGradient>
        <polygon id="path-2" points="13 85 79.1333333 85 79.1333333 0 13 0"></polygon>
    </defs>
    <g id="Salespage-" stroke="none" stroke-width="1" fill="none" fill-rule="evenodd">
        <g id="Salespage-Desktop" transform="translate(-808.000000, -1721.000000)">
            <g id="04.-Kenapa" transform="translate(159.000000, 1533.000000)">
                <g id="02" transform="translate(601.000000, 149.000000)">
                    <g id="Group-16" transform="translate(48.000000, 39.000000)">
                        <circle id="Oval" fill="url(#linearGradient-1)" cx="46" cy="63" r="46"></circle>
                        <path d="M65.4996128,43 C63.8611223,43 62.5327366,41.7472767 62.5327366,40.201944 L62.5327366,22.129881 C62.5327366,13.0130719 54.6676269,5.59594436 45,5.59594436 C35.3327285,5.59594436 27.4674411,13.0130719 27.4674411,22.129881 L27.4674411,40.201944 C27.4674411,41.7471091 26.1390554,43 24.5003872,43 C22.8618968,43 21.5333333,41.7472767 21.5333333,40.201944 L21.5333333,22.129881 C21.5333333,9.92743422 32.0607235,0 45.0001777,0 C57.939632,0 68.4666667,9.92743422 68.4666667,22.129881 L68.4666667,40.201944 C68.4666667,41.7472767 67.1384587,43 65.4996128,43" id="Fill-1" fill="#1C3D66"></path>
                        <path d="M46.0666667,0 L46.0666667,5.59594436 C55.2946864,5.59594436 62.8022911,13.0130719 62.8022911,22.129881 L62.8022911,40.201944 C62.8022911,41.7471091 64.0702956,43 65.6344789,43 C67.1986621,43 68.4666667,41.7472767 68.4666667,40.201944 L68.4666667,22.129881 C68.4666667,9.92743422 58.4179639,0 46.0666667,0" id="Fill-3" fill="#163457"></path>
                        <path d="M76.190941,85 L15.9422161,85 C14.3173444,85 13,83.757665 13,82.2251472 L13,39.7748528 C13,38.2425012 14.3171682,37 15.9422161,37 L76.190941,37 C77.8159889,37 79.1333333,38.242335 79.1333333,39.7748528 L79.1333333,82.2251472 C79.1333333,83.757665 77.8161651,85 76.190941,85" id="Fill-5" fill="#FFE365"></path>
                        <path d="M76.1907805,37 L46.0666667,37 L46.0666667,85 L76.1909567,85 C77.8159959,85 79.1333333,83.7576607 79.1333333,82.2251376 L79.1333333,39.7746962 C79.1333333,38.2423393 77.8159959,37 76.1907805,37" id="Fill-7" fill="#FFC733"></path>
                        <mask id="mask-3" fill="white">
                            <use xlink:href="#path-2"></use>
                        </mask>
                        <g id="Clip-10"></g>
                        <polygon id="Fill-9" fill="#FFC733" mask="url(#mask-3)" points="13 74 79.1333333 74 79.1333333 69 13 69"></polygon>
                        <polygon id="Fill-11" fill="#FFC733" mask="url(#mask-3)" points="13 53 79.1333333 53 79.1333333 48 13 48"></polygon>
                        <polygon id="Fill-12" fill="#FFAF00" mask="url(#mask-3)" points="46.0666667 74 79.1333333 74 79.1333333 69 46.0666667 69"></polygon>
                        <polygon id="Fill-13" fill="#FFAF00" mask="url(#mask-3)" points="46.0666667 53 79.1333333 53 79.1333333 48 46.0666667 48"></polygon>
                        <path d="M51.4,61.5 C51.4,64.5376318 49.012249,67 46.0666667,67 C43.1212459,67 40.7333333,64.5376318 40.7333333,61.5 C40.7333333,58.4623682 43.1212459,56 46.0666667,56 C49.012249,56 51.4,58.4623682 51.4,61.5" id="Fill-14" fill="#1C3D66" mask="url(#mask-3)"></path>
                        <path d="M46.0666667,67 C49.012249,67 51.4,64.5376318 51.4,61.5 C51.4,58.4625348 49.012249,56 46.0666667,56 L46.0666667,67 Z" id="Fill-15" fill="#163457" mask="url(#mask-3)"></path>
                    </g>
                </g>
            </g>
        </g>
    </g>
</svg>